{
    "file": "single-btag-track-variables.json",
    "uchars": [
        "numberOfInnermostPixelLayerOutliers",
        "numberOfNextToInnermostPixelLayerOutliers",
        "numberOfPixelSpoiltHits"
    ],
    "floats": [
        "phi"
    ]
}
